^C:\USERS\VIVALAJAX\DOCUMENTS\VISUAL STUDIO 2010\PROJECTS\JAMPROJECTTWO\JAMPROJECTTWO\RELEASE\ELEMENTGRAPH.OBJ|C:\USERS\VIVALAJAX\DOCUMENTS\VISUAL STUDIO 2010\PROJECTS\JAMPROJECTTWO\JAMPROJECTTWO\RELEASE\ENEMY.OBJ|C:\USERS\VIVALAJAX\DOCUMENTS\VISUAL STUDIO 2010\PROJECTS\JAMPROJECTTWO\JAMPROJECTTWO\RELEASE\GAMECLIENTENTRY.OBJ|C:\USERS\VIVALAJAX\DOCUMENTS\VISUAL STUDIO 2010\PROJECTS\JAMPROJECTTWO\JAMPROJECTTWO\RELEASE\GAMEELEMENT.OBJ|C:\USERS\VIVALAJAX\DOCUMENTS\VISUAL STUDIO 2010\PROJECTS\JAMPROJECTTWO\JAMPROJECTTWO\RELEASE\GAMEOBJECT.OBJ|C:\USERS\VIVALAJAX\DOCUMENTS\VISUAL STUDIO 2010\PROJECTS\JAMPROJECTTWO\JAMPROJECTTWO\RELEASE\JSLINTERPRETER.OBJ|C:\USERS\VIVALAJAX\DOCUMENTS\VISUAL STUDIO 2010\PROJECTS\JAMPROJECTTWO\JAMPROJECTTWO\RELEASE\KEYITEM.OBJ|C:\USERS\VIVALAJAX\DOCUMENTS\VISUAL STUDIO 2010\PROJECTS\JAMPROJECTTWO\JAMPROJECTTWO\RELEASE\LINK.OBJ|C:\USERS\VIVALAJAX\DOCUMENTS\VISUAL STUDIO 2010\PROJECTS\JAMPROJECTTWO\JAMPROJECTTWO\RELEASE\LOCATION.OBJ|C:\USERS\VIVALAJAX\DOCUMENTS\VISUAL STUDIO 2010\PROJECTS\JAMPROJECTTWO\JAMPROJECTTWO\RELEASE\PLAYERCHARACTER.OBJ|C:\USERS\VIVALAJAX\DOCUMENTS\VISUAL STUDIO 2010\PROJECTS\JAMPROJECTTWO\JAMPROJECTTWO\RELEASE\STORYAGENT.OBJ|C:\USERS\VIVALAJAX\DOCUMENTS\VISUAL STUDIO 2010\PROJECTS\JAMPROJECTTWO\JAMPROJECTTWO\RELEASE\TRAVELELEMENT.OBJ
C:\USERS\VIVALAJAX\DOCUMENTS\VISUAL STUDIO 2010\PROJECTS\JAMPROJECTTWO\RELEASE\JAMPROJECTTWO.EXE
C:\USERS\VIVALAJAX\DOCUMENTS\VISUAL STUDIO 2010\PROJECTS\JAMPROJECTTWO\JAMPROJECTTWO\RELEASE\JAMPROJECTTWO.EXE.INTERMEDIATE.MANIFEST
C:\USERS\VIVALAJAX\DOCUMENTS\VISUAL STUDIO 2010\PROJECTS\JAMPROJECTTWO\RELEASE\JAMPROJECTTWO.PDB
