^C:\USERS\VIVALAJAX\DOCUMENTS\VISUAL STUDIO 2010\PROJECTS\JAMPROJECTTWO\JAMPROJECTTWO\DEBUG\ELEMENTGRAPH.OBJ|C:\USERS\VIVALAJAX\DOCUMENTS\VISUAL STUDIO 2010\PROJECTS\JAMPROJECTTWO\JAMPROJECTTWO\DEBUG\GAMECLIENTENTRY.OBJ|C:\USERS\VIVALAJAX\DOCUMENTS\VISUAL STUDIO 2010\PROJECTS\JAMPROJECTTWO\JAMPROJECTTWO\DEBUG\GAMEELEMENT.OBJ|C:\USERS\VIVALAJAX\DOCUMENTS\VISUAL STUDIO 2010\PROJECTS\JAMPROJECTTWO\JAMPROJECTTWO\DEBUG\GAMEOBJECT.OBJ|C:\USERS\VIVALAJAX\DOCUMENTS\VISUAL STUDIO 2010\PROJECTS\JAMPROJECTTWO\JAMPROJECTTWO\DEBUG\JAMPROJECTTWO.EXE.EMBED.MANIFEST.RES|C:\USERS\VIVALAJAX\DOCUMENTS\VISUAL STUDIO 2010\PROJECTS\JAMPROJECTTWO\JAMPROJECTTWO\DEBUG\JSLINTERPRETER.OBJ|C:\USERS\VIVALAJAX\DOCUMENTS\VISUAL STUDIO 2010\PROJECTS\JAMPROJECTTWO\JAMPROJECTTWO\DEBUG\KEYITEM.OBJ|C:\USERS\VIVALAJAX\DOCUMENTS\VISUAL STUDIO 2010\PROJECTS\JAMPROJECTTWO\JAMPROJECTTWO\DEBUG\LINK.OBJ|C:\USERS\VIVALAJAX\DOCUMENTS\VISUAL STUDIO 2010\PROJECTS\JAMPROJECTTWO\JAMPROJECTTWO\DEBUG\LOCATION.OBJ|C:\USERS\VIVALAJAX\DOCUMENTS\VISUAL STUDIO 2010\PROJECTS\JAMPROJECTTWO\JAMPROJECTTWO\DEBUG\PLAYERCHARACTER.OBJ|C:\USERS\VIVALAJAX\DOCUMENTS\VISUAL STUDIO 2010\PROJECTS\JAMPROJECTTWO\JAMPROJECTTWO\DEBUG\STORYAGENT.OBJ|C:\USERS\VIVALAJAX\DOCUMENTS\VISUAL STUDIO 2010\PROJECTS\JAMPROJECTTWO\JAMPROJECTTWO\DEBUG\TRAVELELEMENT.OBJ
/ERRORREPORT:PROMPT /OUT:"C:\Users\VivaLaJax\Documents\Visual Studio 2010\Projects\JamProjectTwo\Debug\JamProjectTwo.exe" /INCREMENTAL /NOLOGO kernel32.lib user32.lib gdi32.lib winspool.lib comdlg32.lib advapi32.lib shell32.lib ole32.lib oleaut32.lib uuid.lib odbc32.lib odbccp32.lib /MANIFEST /ManifestFile:"Debug\JamProjectTwo.exe.intermediate.manifest" /MANIFESTUAC:"level='asInvoker' uiAccess='false'" /DEBUG /PDB:"C:\Users\VivaLaJax\Documents\Visual Studio 2010\Projects\JamProjectTwo\Debug\JamProjectTwo.pdb" /SUBSYSTEM:CONSOLE /LTCG /TLBID:1 /DYNAMICBASE /NXCOMPAT /IMPLIB:"C:\Users\VivaLaJax\Documents\Visual Studio 2010\Projects\JamProjectTwo\Debug\JamProjectTwo.lib" /MACHINE:X86 Debug\JamProjectTwo.exe.embed.manifest.res
Debug\ElementGraph.obj
Debug\GameClientEntry.obj
Debug\GameElement.obj
Debug\GameObject.obj
Debug\JSLInterpreter.obj
Debug\KeyItem.obj
Debug\Link.obj
Debug\Location.obj
Debug\PlayerCharacter.obj
Debug\StoryAgent.obj
Debug\TravelElement.obj
