^C:\USERS\VIVALAJAX\DOCUMENTS\VISUAL STUDIO 2010\PROJECTS\JAMPROJECTTWO\JAMPROJECTTWO\DEBUG\ELEMENTGRAPH.OBJ|C:\USERS\VIVALAJAX\DOCUMENTS\VISUAL STUDIO 2010\PROJECTS\JAMPROJECTTWO\JAMPROJECTTWO\DEBUG\GAMECLIENTENTRY.OBJ|C:\USERS\VIVALAJAX\DOCUMENTS\VISUAL STUDIO 2010\PROJECTS\JAMPROJECTTWO\JAMPROJECTTWO\DEBUG\GAMEELEMENT.OBJ|C:\USERS\VIVALAJAX\DOCUMENTS\VISUAL STUDIO 2010\PROJECTS\JAMPROJECTTWO\JAMPROJECTTWO\DEBUG\GAMEOBJECT.OBJ|C:\USERS\VIVALAJAX\DOCUMENTS\VISUAL STUDIO 2010\PROJECTS\JAMPROJECTTWO\JAMPROJECTTWO\DEBUG\JAMPROJECTTWO.EXE.EMBED.MANIFEST.RES|C:\USERS\VIVALAJAX\DOCUMENTS\VISUAL STUDIO 2010\PROJECTS\JAMPROJECTTWO\JAMPROJECTTWO\DEBUG\JSLINTERPRETER.OBJ|C:\USERS\VIVALAJAX\DOCUMENTS\VISUAL STUDIO 2010\PROJECTS\JAMPROJECTTWO\JAMPROJECTTWO\DEBUG\KEYITEM.OBJ|C:\USERS\VIVALAJAX\DOCUMENTS\VISUAL STUDIO 2010\PROJECTS\JAMPROJECTTWO\JAMPROJECTTWO\DEBUG\LINK.OBJ|C:\USERS\VIVALAJAX\DOCUMENTS\VISUAL STUDIO 2010\PROJECTS\JAMPROJECTTWO\JAMPROJECTTWO\DEBUG\LOCATION.OBJ|C:\USERS\VIVALAJAX\DOCUMENTS\VISUAL STUDIO 2010\PROJECTS\JAMPROJECTTWO\JAMPROJECTTWO\DEBUG\PLAYERCHARACTER.OBJ|C:\USERS\VIVALAJAX\DOCUMENTS\VISUAL STUDIO 2010\PROJECTS\JAMPROJECTTWO\JAMPROJECTTWO\DEBUG\STORYAGENT.OBJ|C:\USERS\VIVALAJAX\DOCUMENTS\VISUAL STUDIO 2010\PROJECTS\JAMPROJECTTWO\JAMPROJECTTWO\DEBUG\TRAVELELEMENT.OBJ
C:\USERS\VIVALAJAX\DOCUMENTS\VISUAL STUDIO 2010\PROJECTS\JAMPROJECTTWO\DEBUG\JAMPROJECTTWO.EXE
C:\USERS\VIVALAJAX\DOCUMENTS\VISUAL STUDIO 2010\PROJECTS\JAMPROJECTTWO\JAMPROJECTTWO\DEBUG\JAMPROJECTTWO.EXE.INTERMEDIATE.MANIFEST
C:\USERS\VIVALAJAX\DOCUMENTS\VISUAL STUDIO 2010\PROJECTS\JAMPROJECTTWO\DEBUG\JAMPROJECTTWO.PDB
