^C:\USERS\VIVALAJAX\DOCUMENTS\VISUAL STUDIO 2010\PROJECTS\JAMPROJECTTWO\JAMSERVERTWO\DEBUG\ELEMENTGRAPH.OBJ|C:\USERS\VIVALAJAX\DOCUMENTS\VISUAL STUDIO 2010\PROJECTS\JAMPROJECTTWO\JAMSERVERTWO\DEBUG\GAMEELEMENT.OBJ|C:\USERS\VIVALAJAX\DOCUMENTS\VISUAL STUDIO 2010\PROJECTS\JAMPROJECTTWO\JAMSERVERTWO\DEBUG\GAMEOBJECT.OBJ|C:\USERS\VIVALAJAX\DOCUMENTS\VISUAL STUDIO 2010\PROJECTS\JAMPROJECTTWO\JAMSERVERTWO\DEBUG\JAMSERVERENTRY.OBJ|C:\USERS\VIVALAJAX\DOCUMENTS\VISUAL STUDIO 2010\PROJECTS\JAMPROJECTTWO\JAMSERVERTWO\DEBUG\JSLINTERPRETER.OBJ|C:\USERS\VIVALAJAX\DOCUMENTS\VISUAL STUDIO 2010\PROJECTS\JAMPROJECTTWO\JAMSERVERTWO\DEBUG\KEYITEM.OBJ|C:\USERS\VIVALAJAX\DOCUMENTS\VISUAL STUDIO 2010\PROJECTS\JAMPROJECTTWO\JAMSERVERTWO\DEBUG\LINK.OBJ|C:\USERS\VIVALAJAX\DOCUMENTS\VISUAL STUDIO 2010\PROJECTS\JAMPROJECTTWO\JAMSERVERTWO\DEBUG\LOCATION.OBJ|C:\USERS\VIVALAJAX\DOCUMENTS\VISUAL STUDIO 2010\PROJECTS\JAMPROJECTTWO\JAMSERVERTWO\DEBUG\PLAYERCHARACTER.OBJ|C:\USERS\VIVALAJAX\DOCUMENTS\VISUAL STUDIO 2010\PROJECTS\JAMPROJECTTWO\JAMSERVERTWO\DEBUG\STORYAGENT.OBJ|C:\USERS\VIVALAJAX\DOCUMENTS\VISUAL STUDIO 2010\PROJECTS\JAMPROJECTTWO\JAMSERVERTWO\DEBUG\TRAVELELEMENT.OBJ
/ERRORREPORT:PROMPT /OUT:"C:\Users\VivaLaJax\Documents\Visual Studio 2010\Projects\JamProjectTwo\Debug\JamServerTwo.exe" /INCREMENTAL:NO /NOLOGO kernel32.lib user32.lib gdi32.lib winspool.lib comdlg32.lib advapi32.lib shell32.lib ole32.lib oleaut32.lib uuid.lib odbc32.lib odbccp32.lib /MANIFEST /ManifestFile:"Debug\JamServerTwo.exe.intermediate.manifest" /MANIFESTUAC:"level='asInvoker' uiAccess='false'" /DEBUG /PDB:"C:\Users\VivaLaJax\Documents\Visual Studio 2010\Projects\JamProjectTwo\Debug\JamServerTwo.pdb" /SUBSYSTEM:CONSOLE /LTCG /TLBID:1 /DYNAMICBASE /NXCOMPAT /IMPLIB:"C:\Users\VivaLaJax\Documents\Visual Studio 2010\Projects\JamProjectTwo\Debug\JamServerTwo.lib" /MACHINE:X86 Debug\ElementGraph.obj
Debug\GameElement.obj
Debug\GameObject.obj
Debug\JamServerEntry.obj
Debug\JSLInterpreter.obj
Debug\KeyItem.obj
Debug\Link.obj
Debug\Location.obj
Debug\PlayerCharacter.obj
Debug\StoryAgent.obj
Debug\TravelElement.obj
