^C:\USERS\VIVALAJAX\DOCUMENTS\VISUAL STUDIO 2010\PROJECTS\JAMPROJECTTWO\JAMSERVERTWO\RELEASE\JAMSERVERTWO.EXE.INTERMEDIATE.MANIFEST
C:\WINDOWS\MICROSOFT.NET\FRAMEWORK\V2.0.50727\MSCORWKS.DLL
C:\WINDOWS\MICROSOFT.NET\FRAMEWORK\V4.0.30319\CLR.DLL
C:\PROGRAM FILES (X86)\MICROSOFT SDKS\WINDOWS\V7.0A\BIN\MT.EXE.CONFIG
C:\USERS\VIVALAJAX\DOCUMENTS\VISUAL STUDIO 2010\PROJECTS\JAMPROJECTTWO\RELEASE\JAMSERVERTWO.EXE
